Exploratory Data Analysis
…
From the metrics above, It is clear that the data set has 15,021 rows and 32 features.

# Getting the length of the unique entries
victims_df %>% 
  map_df(~ n_distinct(.)) %>% 
  gather(FEATURE, DISTINCT_ROWS) %>% 
  arrange(desc(DISTINCT_ROWS))

## # A tibble: 32 x 2
##    FEATURE           DISTINCT_ROWS
##    <chr>                     <int>
##  1 serialno                  15021
##  2 Computer_FileNO           10741
##  3 Event_Date                 2587
##  4 Age                          88
##  5 sno                          75
##  6 PermanentDistrict            75
##  7 IncidentDistrict             74
##  8 IncidentVictim               57
##  9 age_2                        54
## 10 LanguageGroup                20
## #  with 22 more rows
…
